2 Sectors & Industries | I Like the Stock
…
2.4 Sector Rotations

## # A tibble: 99 × 5
## # Groups:   Sector [13]
##    Date       Sector                 Growth Trend   Value
##    <date>     <chr>                   <dbl> <chr>   <dbl>
##  1 2008-12-04 ""                  0.00137   Uptrend     1
##  2 2010-05-17 ""                  0.0513    Uptrend     1
##  3 2012-08-21 ""                  0.0172    Uptrend     1
##  4 2014-05-01 ""                  0.0132    Uptrend     1
##  5 2009-03-16 "Basic Industries"  0.00707   Uptrend     1
##  6 2010-08-17 "Basic Industries"  0.00904   Uptrend     1
##  7 2009-07-08 "Capital Goods"     0.0000697 Uptrend     1
##  8 2011-12-14 "Capital Goods"     0.00250   Uptrend     1
##  9 2016-01-27 "Capital Goods"     0.0183    Uptrend     1
## 10 2009-08-03 "Consumer Durables" 0.0252    Uptrend     1
## # … with 89 more rows
…
